## Title: LibExtraTip |cff224477(lib)
## Notes: Assists in the management of additional tooltip information.
##
## Interface: 80200
## LoadOnDemand: 0
##
## Version: <%version%> (<%codename%>)
## Revision: $Id$
## Author: Norganna's AddOns
## X-Part-Of: Libraries
## X-Category: Library
## X-Max-Interface: 80100
## X-URL: http://zip.norganna.org/libs/LibExtraTip/
## X-Feedback: http://forums.norganna.org
##
Load.xml
